{
  "joblist": [
    {
      "id": "5e2b2a147ef13fb8bdaa32cd",
      "positionName": "Frontend Developer",
      "companyName": "Futuris",
      "durationDay": 0,
      "durationDayText": "Taze çıktı!",
      "imageUrl": "https://res-2.cloudinary.com/crunchbase-production/image/upload/c_lpad,h_256,w_256,f_auto,q_auto:eco/v1399959105/k9kztviuyj5cqc6pirc3.jpg",
      "distance": "8,53 km yakınında",
      "latitude": 41.05096817016602,
      "longitude": 29.06285667419434,
      "cityName": "Moraida",
      "townName": "Paerdegat Avenue",
      "description": "<h3>QUALIFICATIONS AND JOB DESCRIPTION</h3><p><br></p><p>Qualifications</p><p><br></p><ul><li>Bachelor’s Degree or equivalent,</li><li>At least 2 years of experience,</li><li>Located in <span>Antalya,</span></li><li>Significant experience with software development life-cycle,</li><li>Ability to manage multiple projects and features at one time,</li><li>Good level of verbal and written English is a must,</li><li>Good planning and time management skills,</li><li>Team player, Get-it-done attitude and quick learner,&nbsp;</li><li>Ability to work cooperatively and collaboratively,</li><li>Completion of military service or minimum 2 years of postponed</li></ul><p><span>Additional Skills</span></p><ul><li>Excitement for emerging Web standards and the fundamentals of writing clean, testable and maintainable code,</li><li>Deep understanding and hands-on experience with :Javascript, Ajax, HTML, CSS and responsive design,</li><li>Server side rendering technologies like JSP,JSTL, FTL , PHP,</li><li>Knowledge and experience with modern frameworks such as Angular, Vue, React and Bootstrap,</li><li>In-depth understanding of web software development life-cycle and agile software development,&nbsp;</li><li>Experience on GIT basics and familiarity with advanced topics like branching model, keeping commit graph clean,</li><li>Familiarity with back-end Technologies like RESTful interfaces, tiered application development is a plus,</li><li>Experience or eager to learn and work on backend software development technologies (Java, Scala, Play framework)&nbsp;is a plus,</li><li>Experience with build tools Browserify/Require/Webpack/Grunt/Gulp is a plus,</li><li>Experience with CSS naming conventions, SASS/LESS/SCSS is a plus,</li><li>Experience with React, Redux, Jade/Pug is a plus.&nbsp;</li></ul><p><br></p><p><br></p><p>Job Description</p><p><br></p><ul><li>Be a member of a cross-functional team that includes software developers, devops, business analysts and QA analysts aiming to create highly performing, beautiful and easy to use software in an agile development environment. Taking care the business priorities,</li><li>Collaborate with the team and Business Analyst to prioritize activities and projects,&nbsp;</li><li>Assist the UX/UI designer team in brainstorming, research, and wireframe translation into reusable components,</li><li>Work closely with UX/UI Designers, Product Owners and business to establish the requirements for the user interfaces, often working from wireframes, mock-ups, or prototypes,</li><li>Translate UI/UX requirements into high-quality designs and implementation that grows with the needs of the business,</li><li>Analyze and review UI requirements and UX/UI team deliveries for completeness, unexpected impacts, performance impacts and potential user-impacting concerns,</li><li>Innovate with new UX capabilities, Front-End platforms and technologies,</li><li>Documenting the software components,</li><li>Implementing the unit tests using tools like Selenium, etc.&nbsp;</li></ul>",
      "contactPhone": {
        "countryCallingCode": "+90",
        "areaCode": "879",
        "number": "9797979"
      }
    },
    {
      "id": "5e2b2a14824ac73164220d52",
      "positionName": "Backend Developer",
      "companyName": "Senmei",
      "durationDay": 0,
      "durationDayText": "Taze çıktı!",
      "imageUrl": "https://res-2.cloudinary.com/crunchbase-production/image/upload/c_lpad,h_256,w_256,f_auto,q_auto:eco/v1399959105/k9kztviuyj5cqc6pirc3.jpg",
      "distance": "8,53 km yakınında",
      "latitude": 41.05096817016602,
      "longitude": 29.06285667419434,
      "cityName": "Cutter",
      "townName": "Herkimer Court",
      "description": "<h3>QUALIFICATIONS AND JOB DESCRIPTION</h3><p><br></p><p>Qualifications</p><p><br></p><ul><li>Bachelor’s Degree or equivalent,</li><li>At least 2 years of experience,</li><li>Located in <span>Antalya,</span></li><li>Significant experience with software development life-cycle,</li><li>Ability to manage multiple projects and features at one time,</li><li>Good level of verbal and written English is a must,</li><li>Good planning and time management skills,</li><li>Team player, Get-it-done attitude and quick learner,&nbsp;</li><li>Ability to work cooperatively and collaboratively,</li><li>Completion of military service or minimum 2 years of postponed</li></ul><p><span>Additional Skills</span></p><ul><li>Excitement for emerging Web standards and the fundamentals of writing clean, testable and maintainable code,</li><li>Deep understanding and hands-on experience with :Javascript, Ajax, HTML, CSS and responsive design,</li><li>Server side rendering technologies like JSP,JSTL, FTL , PHP,</li><li>Knowledge and experience with modern frameworks such as Angular, Vue, React and Bootstrap,</li><li>In-depth understanding of web software development life-cycle and agile software development,&nbsp;</li><li>Experience on GIT basics and familiarity with advanced topics like branching model, keeping commit graph clean,</li><li>Familiarity with back-end Technologies like RESTful interfaces, tiered application development is a plus,</li><li>Experience or eager to learn and work on backend software development technologies (Java, Scala, Play framework)&nbsp;is a plus,</li><li>Experience with build tools Browserify/Require/Webpack/Grunt/Gulp is a plus,</li><li>Experience with CSS naming conventions, SASS/LESS/SCSS is a plus,</li><li>Experience with React, Redux, Jade/Pug is a plus.&nbsp;</li></ul><p><br></p><p><br></p><p>Job Description</p><p><br></p><ul><li>Be a member of a cross-functional team that includes software developers, devops, business analysts and QA analysts aiming to create highly performing, beautiful and easy to use software in an agile development environment. Taking care the business priorities,</li><li>Collaborate with the team and Business Analyst to prioritize activities and projects,&nbsp;</li><li>Assist the UX/UI designer team in brainstorming, research, and wireframe translation into reusable components,</li><li>Work closely with UX/UI Designers, Product Owners and business to establish the requirements for the user interfaces, often working from wireframes, mock-ups, or prototypes,</li><li>Translate UI/UX requirements into high-quality designs and implementation that grows with the needs of the business,</li><li>Analyze and review UI requirements and UX/UI team deliveries for completeness, unexpected impacts, performance impacts and potential user-impacting concerns,</li><li>Innovate with new UX capabilities, Front-End platforms and technologies,</li><li>Documenting the software components,</li><li>Implementing the unit tests using tools like Selenium, etc.&nbsp;</li></ul>",
      "contactPhone": {
        "countryCallingCode": "+90",
        "areaCode": "879",
        "number": "9797979"
      }
    },
    {
      "id": "5e2b2a1494089566e58a0b45",
      "positionName": "C# Developer",
      "companyName": "Geoform",
      "durationDay": 0,
      "durationDayText": "Taze çıktı!",
      "imageUrl": "https://res-2.cloudinary.com/crunchbase-production/image/upload/c_lpad,h_256,w_256,f_auto,q_auto:eco/v1399959105/k9kztviuyj5cqc6pirc3.jpg",
      "distance": "8,53 km yakınında",
      "latitude": 41.05096817016602,
      "longitude": 29.06285667419434,
      "cityName": "Ahwahnee",
      "townName": "Coventry Road",
      "description": "<h3>QUALIFICATIONS AND JOB DESCRIPTION</h3><p><br></p><p>Qualifications</p><p><br></p><ul><li>Bachelor’s Degree or equivalent,</li><li>At least 2 years of experience,</li><li>Located in <span>Antalya,</span></li><li>Significant experience with software development life-cycle,</li><li>Ability to manage multiple projects and features at one time,</li><li>Good level of verbal and written English is a must,</li><li>Good planning and time management skills,</li><li>Team player, Get-it-done attitude and quick learner,&nbsp;</li><li>Ability to work cooperatively and collaboratively,</li><li>Completion of military service or minimum 2 years of postponed</li></ul><p><span>Additional Skills</span></p><ul><li>Excitement for emerging Web standards and the fundamentals of writing clean, testable and maintainable code,</li><li>Deep understanding and hands-on experience with :Javascript, Ajax, HTML, CSS and responsive design,</li><li>Server side rendering technologies like JSP,JSTL, FTL , PHP,</li><li>Knowledge and experience with modern frameworks such as Angular, Vue, React and Bootstrap,</li><li>In-depth understanding of web software development life-cycle and agile software development,&nbsp;</li><li>Experience on GIT basics and familiarity with advanced topics like branching model, keeping commit graph clean,</li><li>Familiarity with back-end Technologies like RESTful interfaces, tiered application development is a plus,</li><li>Experience or eager to learn and work on backend software development technologies (Java, Scala, Play framework)&nbsp;is a plus,</li><li>Experience with build tools Browserify/Require/Webpack/Grunt/Gulp is a plus,</li><li>Experience with CSS naming conventions, SASS/LESS/SCSS is a plus,</li><li>Experience with React, Redux, Jade/Pug is a plus.&nbsp;</li></ul><p><br></p><p><br></p><p>Job Description</p><p><br></p><ul><li>Be a member of a cross-functional team that includes software developers, devops, business analysts and QA analysts aiming to create highly performing, beautiful and easy to use software in an agile development environment. Taking care the business priorities,</li><li>Collaborate with the team and Business Analyst to prioritize activities and projects,&nbsp;</li><li>Assist the UX/UI designer team in brainstorming, research, and wireframe translation into reusable components,</li><li>Work closely with UX/UI Designers, Product Owners and business to establish the requirements for the user interfaces, often working from wireframes, mock-ups, or prototypes,</li><li>Translate UI/UX requirements into high-quality designs and implementation that grows with the needs of the business,</li><li>Analyze and review UI requirements and UX/UI team deliveries for completeness, unexpected impacts, performance impacts and potential user-impacting concerns,</li><li>Innovate with new UX capabilities, Front-End platforms and technologies,</li><li>Documenting the software components,</li><li>Implementing the unit tests using tools like Selenium, etc.&nbsp;</li></ul>",
      "contactPhone": {
        "countryCallingCode": "+90",
        "areaCode": "879",
        "number": "9797979"
      }
    },
    {
      "id": "5e2b2a14392f2ebf8564676c",
      "positionName": "GO Developer",
      "companyName": "Comvene",
      "durationDay": 0,
      "durationDayText": "Taze çıktı!",
      "imageUrl": "https://res-2.cloudinary.com/crunchbase-production/image/upload/c_lpad,h_256,w_256,f_auto,q_auto:eco/v1399959105/k9kztviuyj5cqc6pirc3.jpg",
      "distance": "8,53 km yakınında",
      "latitude": 41.05096817016602,
      "longitude": 29.06285667419434,
      "cityName": "Lookingglass",
      "townName": "Etna Street",
      "description": "<h3>QUALIFICATIONS AND JOB DESCRIPTION</h3><p><br></p><p>Qualifications</p><p><br></p><ul><li>Bachelor’s Degree or equivalent,</li><li>At least 2 years of experience,</li><li>Located in <span>Antalya,</span></li><li>Significant experience with software development life-cycle,</li><li>Ability to manage multiple projects and features at one time,</li><li>Good level of verbal and written English is a must,</li><li>Good planning and time management skills,</li><li>Team player, Get-it-done attitude and quick learner,&nbsp;</li><li>Ability to work cooperatively and collaboratively,</li><li>Completion of military service or minimum 2 years of postponed</li></ul><p><span>Additional Skills</span></p><ul><li>Excitement for emerging Web standards and the fundamentals of writing clean, testable and maintainable code,</li><li>Deep understanding and hands-on experience with :Javascript, Ajax, HTML, CSS and responsive design,</li><li>Server side rendering technologies like JSP,JSTL, FTL , PHP,</li><li>Knowledge and experience with modern frameworks such as Angular, Vue, React and Bootstrap,</li><li>In-depth understanding of web software development life-cycle and agile software development,&nbsp;</li><li>Experience on GIT basics and familiarity with advanced topics like branching model, keeping commit graph clean,</li><li>Familiarity with back-end Technologies like RESTful interfaces, tiered application development is a plus,</li><li>Experience or eager to learn and work on backend software development technologies (Java, Scala, Play framework)&nbsp;is a plus,</li><li>Experience with build tools Browserify/Require/Webpack/Grunt/Gulp is a plus,</li><li>Experience with CSS naming conventions, SASS/LESS/SCSS is a plus,</li><li>Experience with React, Redux, Jade/Pug is a plus.&nbsp;</li></ul><p><br></p><p><br></p><p>Job Description</p><p><br></p><ul><li>Be a member of a cross-functional team that includes software developers, devops, business analysts and QA analysts aiming to create highly performing, beautiful and easy to use software in an agile development environment. Taking care the business priorities,</li><li>Collaborate with the team and Business Analyst to prioritize activities and projects,&nbsp;</li><li>Assist the UX/UI designer team in brainstorming, research, and wireframe translation into reusable components,</li><li>Work closely with UX/UI Designers, Product Owners and business to establish the requirements for the user interfaces, often working from wireframes, mock-ups, or prototypes,</li><li>Translate UI/UX requirements into high-quality designs and implementation that grows with the needs of the business,</li><li>Analyze and review UI requirements and UX/UI team deliveries for completeness, unexpected impacts, performance impacts and potential user-impacting concerns,</li><li>Innovate with new UX capabilities, Front-End platforms and technologies,</li><li>Documenting the software components,</li><li>Implementing the unit tests using tools like Selenium, etc.&nbsp;</li></ul>",
      "contactPhone": {
        "countryCallingCode": "+90",
        "areaCode": "879",
        "number": "9797979"
      }
    },
    {
      "id": "5e2b2a145f9a2014a5a84e5a",
      "positionName": "Javascript Developer",
      "companyName": "Kegular",
      "durationDay": 0,
      "durationDayText": "Taze çıktı!",
      "imageUrl": "https://res-2.cloudinary.com/crunchbase-production/image/upload/c_lpad,h_256,w_256,f_auto,q_auto:eco/v1399959105/k9kztviuyj5cqc6pirc3.jpg",
      "distance": "8,53 km yakınında",
      "latitude": 41.05096817016602,
      "longitude": 29.06285667419434,
      "cityName": "Waikele",
      "townName": "Hubbard Place",
      "description": "<h3>QUALIFICATIONS AND JOB DESCRIPTION</h3><p><br></p><p>Qualifications</p><p><br></p><ul><li>Bachelor’s Degree or equivalent,</li><li>At least 2 years of experience,</li><li>Located in <span>Antalya,</span></li><li>Significant experience with software development life-cycle,</li><li>Ability to manage multiple projects and features at one time,</li><li>Good level of verbal and written English is a must,</li><li>Good planning and time management skills,</li><li>Team player, Get-it-done attitude and quick learner,&nbsp;</li><li>Ability to work cooperatively and collaboratively,</li><li>Completion of military service or minimum 2 years of postponed</li></ul><p><span>Additional Skills</span></p><ul><li>Excitement for emerging Web standards and the fundamentals of writing clean, testable and maintainable code,</li><li>Deep understanding and hands-on experience with :Javascript, Ajax, HTML, CSS and responsive design,</li><li>Server side rendering technologies like JSP,JSTL, FTL , PHP,</li><li>Knowledge and experience with modern frameworks such as Angular, Vue, React and Bootstrap,</li><li>In-depth understanding of web software development life-cycle and agile software development,&nbsp;</li><li>Experience on GIT basics and familiarity with advanced topics like branching model, keeping commit graph clean,</li><li>Familiarity with back-end Technologies like RESTful interfaces, tiered application development is a plus,</li><li>Experience or eager to learn and work on backend software development technologies (Java, Scala, Play framework)&nbsp;is a plus,</li><li>Experience with build tools Browserify/Require/Webpack/Grunt/Gulp is a plus,</li><li>Experience with CSS naming conventions, SASS/LESS/SCSS is a plus,</li><li>Experience with React, Redux, Jade/Pug is a plus.&nbsp;</li></ul><p><br></p><p><br></p><p>Job Description</p><p><br></p><ul><li>Be a member of a cross-functional team that includes software developers, devops, business analysts and QA analysts aiming to create highly performing, beautiful and easy to use software in an agile development environment. Taking care the business priorities,</li><li>Collaborate with the team and Business Analyst to prioritize activities and projects,&nbsp;</li><li>Assist the UX/UI designer team in brainstorming, research, and wireframe translation into reusable components,</li><li>Work closely with UX/UI Designers, Product Owners and business to establish the requirements for the user interfaces, often working from wireframes, mock-ups, or prototypes,</li><li>Translate UI/UX requirements into high-quality designs and implementation that grows with the needs of the business,</li><li>Analyze and review UI requirements and UX/UI team deliveries for completeness, unexpected impacts, performance impacts and potential user-impacting concerns,</li><li>Innovate with new UX capabilities, Front-End platforms and technologies,</li><li>Documenting the software components,</li><li>Implementing the unit tests using tools like Selenium, etc.&nbsp;</li></ul>",
      "contactPhone": {
        "countryCallingCode": "+90",
        "areaCode": "879",
        "number": "9797979"
      }
    },
    {
      "id": "5e2b2a145b83a0b15d2b32f8",
      "positionName": "Css Developer",
      "companyName": "Maximind",
      "durationDay": 0,
      "durationDayText": "Taze çıktı!",
      "imageUrl": "https://res-2.cloudinary.com/crunchbase-production/image/upload/c_lpad,h_256,w_256,f_auto,q_auto:eco/v1399959105/k9kztviuyj5cqc6pirc3.jpg",
      "distance": "8,53 km yakınında",
      "latitude": 41.05096817016602,
      "longitude": 29.06285667419434,
      "cityName": "Ogema",
      "townName": "Cooper Street",
      "description": "<h3>QUALIFICATIONS AND JOB DESCRIPTION</h3><p><br></p><p>Qualifications</p><p><br></p><ul><li>Bachelor’s Degree or equivalent,</li><li>At least 2 years of experience,</li><li>Located in <span>Antalya,</span></li><li>Significant experience with software development life-cycle,</li><li>Ability to manage multiple projects and features at one time,</li><li>Good level of verbal and written English is a must,</li><li>Good planning and time management skills,</li><li>Team player, Get-it-done attitude and quick learner,&nbsp;</li><li>Ability to work cooperatively and collaboratively,</li><li>Completion of military service or minimum 2 years of postponed</li></ul><p><span>Additional Skills</span></p><ul><li>Excitement for emerging Web standards and the fundamentals of writing clean, testable and maintainable code,</li><li>Deep understanding and hands-on experience with :Javascript, Ajax, HTML, CSS and responsive design,</li><li>Server side rendering technologies like JSP,JSTL, FTL , PHP,</li><li>Knowledge and experience with modern frameworks such as Angular, Vue, React and Bootstrap,</li><li>In-depth understanding of web software development life-cycle and agile software development,&nbsp;</li><li>Experience on GIT basics and familiarity with advanced topics like branching model, keeping commit graph clean,</li><li>Familiarity with back-end Technologies like RESTful interfaces, tiered application development is a plus,</li><li>Experience or eager to learn and work on backend software development technologies (Java, Scala, Play framework)&nbsp;is a plus,</li><li>Experience with build tools Browserify/Require/Webpack/Grunt/Gulp is a plus,</li><li>Experience with CSS naming conventions, SASS/LESS/SCSS is a plus,</li><li>Experience with React, Redux, Jade/Pug is a plus.&nbsp;</li></ul><p><br></p><p><br></p><p>Job Description</p><p><br></p><ul><li>Be a member of a cross-functional team that includes software developers, devops, business analysts and QA analysts aiming to create highly performing, beautiful and easy to use software in an agile development environment. Taking care the business priorities,</li><li>Collaborate with the team and Business Analyst to prioritize activities and projects,&nbsp;</li><li>Assist the UX/UI designer team in brainstorming, research, and wireframe translation into reusable components,</li><li>Work closely with UX/UI Designers, Product Owners and business to establish the requirements for the user interfaces, often working from wireframes, mock-ups, or prototypes,</li><li>Translate UI/UX requirements into high-quality designs and implementation that grows with the needs of the business,</li><li>Analyze and review UI requirements and UX/UI team deliveries for completeness, unexpected impacts, performance impacts and potential user-impacting concerns,</li><li>Innovate with new UX capabilities, Front-End platforms and technologies,</li><li>Documenting the software components,</li><li>Implementing the unit tests using tools like Selenium, etc.&nbsp;</li></ul>",
      "contactPhone": {
        "countryCallingCode": "+90",
        "areaCode": "879",
        "number": "9797979"
      }
    },
    {
      "id": "5e2b2a14eefa2d6fe113dd27",
      "positionName": "Astronot",
      "companyName": "Zolavo",
      "durationDay": 0,
      "durationDayText": "Taze çıktı!",
      "imageUrl": "https://res-2.cloudinary.com/crunchbase-production/image/upload/c_lpad,h_256,w_256,f_auto,q_auto:eco/v1399959105/k9kztviuyj5cqc6pirc3.jpg",
      "distance": "8,53 km yakınında",
      "latitude": 41.05096817016602,
      "longitude": 29.06285667419434,
      "cityName": "Driftwood",
      "townName": "Orient Avenue",
      "description": "<h3>QUALIFICATIONS AND JOB DESCRIPTION</h3><p><br></p><p>Qualifications</p><p><br></p><ul><li>Bachelor’s Degree or equivalent,</li><li>At least 2 years of experience,</li><li>Located in <span>Antalya,</span></li><li>Significant experience with software development life-cycle,</li><li>Ability to manage multiple projects and features at one time,</li><li>Good level of verbal and written English is a must,</li><li>Good planning and time management skills,</li><li>Team player, Get-it-done attitude and quick learner,&nbsp;</li><li>Ability to work cooperatively and collaboratively,</li><li>Completion of military service or minimum 2 years of postponed</li></ul><p><span>Additional Skills</span></p><ul><li>Excitement for emerging Web standards and the fundamentals of writing clean, testable and maintainable code,</li><li>Deep understanding and hands-on experience with :Javascript, Ajax, HTML, CSS and responsive design,</li><li>Server side rendering technologies like JSP,JSTL, FTL , PHP,</li><li>Knowledge and experience with modern frameworks such as Angular, Vue, React and Bootstrap,</li><li>In-depth understanding of web software development life-cycle and agile software development,&nbsp;</li><li>Experience on GIT basics and familiarity with advanced topics like branching model, keeping commit graph clean,</li><li>Familiarity with back-end Technologies like RESTful interfaces, tiered application development is a plus,</li><li>Experience or eager to learn and work on backend software development technologies (Java, Scala, Play framework)&nbsp;is a plus,</li><li>Experience with build tools Browserify/Require/Webpack/Grunt/Gulp is a plus,</li><li>Experience with CSS naming conventions, SASS/LESS/SCSS is a plus,</li><li>Experience with React, Redux, Jade/Pug is a plus.&nbsp;</li></ul><p><br></p><p><br></p><p>Job Description</p><p><br></p><ul><li>Be a member of a cross-functional team that includes software developers, devops, business analysts and QA analysts aiming to create highly performing, beautiful and easy to use software in an agile development environment. Taking care the business priorities,</li><li>Collaborate with the team and Business Analyst to prioritize activities and projects,&nbsp;</li><li>Assist the UX/UI designer team in brainstorming, research, and wireframe translation into reusable components,</li><li>Work closely with UX/UI Designers, Product Owners and business to establish the requirements for the user interfaces, often working from wireframes, mock-ups, or prototypes,</li><li>Translate UI/UX requirements into high-quality designs and implementation that grows with the needs of the business,</li><li>Analyze and review UI requirements and UX/UI team deliveries for completeness, unexpected impacts, performance impacts and potential user-impacting concerns,</li><li>Innovate with new UX capabilities, Front-End platforms and technologies,</li><li>Documenting the software components,</li><li>Implementing the unit tests using tools like Selenium, etc.&nbsp;</li></ul>",
      "contactPhone": {
        "countryCallingCode": "+90",
        "areaCode": "879",
        "number": "9797979"
      }
    }
  ]
}
